…
### K-Means Clustering

First, let's extract the two columns we want to use in our clustering algorithm.

```
library(dplyr)

data_kmeans <- novels %>%
  select(prop_uniquewords,words)
 
 data_kmeans
```

```
# A tibble: 48 x 2
   prop_uniquewords  words
              <dbl>  <dbl>
 1            0.143 190723
 2            0.168  69463
 3            0.151  78935
 4            0.134 136293
 5            0.119 166185
 6            0.101 159540
 7            0.119  58737
 8            0.108 121544
 9            0.162  52634
10            0.230  54512
# ... with 38 more rows
```

Given the large difference between values of prop_uniquewords and words, we should scale our data.

```
data_kmeans <- data_kmeans %>%
mutate(prop_uniquewords = scale(prop_uniquewords), 
    words = scale(words))
```

```
# A tibble: 48 x 2
   prop_uniquewords  words
              <dbl>  <dbl>
 1          -0.279   1.38 
 2           0.446  -0.605
 3          -0.0339 -0.450
 4          -0.526   0.489
 5          -0.951   0.978
 6          -1.44    0.869
 7          -0.957  -0.780
 8          -1.27    0.247
 9           0.274  -0.880
10           2.19   -0.849
# ... with 38 more rows
```
…
