…
We found previously that, in terms of Toronto districts, Toronto/East York and Scarborough have a lot more accidents than Etibocoke York/North York. But while we looked at districts, we failed to include neighborhoods. let's check that out now:

```markdown
data %>%
  group_by(Neighbourh,District=District) %>%
  summarise (n=n()) %>%
  arrange (desc(n))
```
```markdown
# A tibble: 143 x 3
# Groups:   Neighbourh [128]
   Neighbourh                          District                n
   <fct>                               <fct>               <int>
 1 West Humber-Clairville (1)          Etobicoke York         22
 2 South Parkdale (85)                 Toronto and East Y…    18
 3 Clairlea-Birchmount (120)           Scarborough            16
 4 Waterfront Communities-The Island … Toronto and East Y…    14
 5 Malvern (132)                       Scarborough            12
 6 Steeles (116)                       Scarborough            12
 7 Wexford/Maryvale (119)              Scarborough            12
 8 Islington-City Centre West (14)     Etobicoke York         11
 9 Moss Park (73)                      Toronto and East Y…    11
10 Clanton Park (33)                   North York             10
# ... with 133 more rows
```
…
